Regression modelling - Simple linear regression
…
Technique of least squares used by Carl Friedrich Gauss in 1809 to fit a parabola to the orbit of the asteroid Ceres

Model fitting first published by Francis Galton in 1886 to the problem of predicting the height of a child from the height of the parents

Note

Many other people contributed to the development of regression analysis, but these three are the “most” well-known.

Galton’s data

library(HistData)
dplyr::tibble(Galton)

# A tibble: 928 × 2
   parent child
    <dbl> <dbl>
 1   70.5  61.7
 2   68.5  61.7
 3   65.5  61.7
 4   64.5  61.7
 5   64    61.7
 6   67.5  62.2
 7   67.5  62.2
 8   67.5  62.2
 9   66.5  62.2
10   66.5  62.2
# … with 918 more rows
…
broom::glance(fit)

# A tibble: 1 × 12
  r.squared adj.r.squa…¹ sigma stati…²  p.value    df logLik   AIC   BIC devia…³
      <dbl>        <dbl> <dbl>   <dbl>    <dbl> <dbl>  <dbl> <dbl> <dbl>   <dbl>
1     0.210        0.210  2.24    247. 1.73e-49     1 -2064. 4133. 4148.   4640.
# … with 2 more variables: df.residual <int>, nobs <int>, and abbreviated
#   variable names ¹​adj.r.squared, ²​statistic, ³​deviance

The augment function adds the fitted values and residuals to the data frame:

augment(fit)

# A tibble: 928 × 8
   child parent .fitted .resid    .hat .sigma .cooksd .std.resid
   <dbl>  <dbl>   <dbl>  <dbl>   <dbl>  <dbl>   <dbl>      <dbl>
 1  61.7   70.5    69.5  -7.81 0.00270   2.22 0.0165       -3.49
 2  61.7   68.5    68.2  -6.51 0.00109   2.23 0.00462      -2.91
 3  61.7   65.5    66.3  -4.57 0.00374   2.23 0.00787      -2.05
 4  61.7   64.5    65.6  -3.93 0.00597   2.24 0.00931      -1.76
 5  61.7   64      65.3  -3.60 0.00735   2.24 0.00966      -1.62
 6  62.2   67.5    67.6  -5.37 0.00130   2.23 0.00374      -2.40
 7  62.2   67.5    67.6  -5.37 0.00130   2.23 0.00374      -2.40
 8  62.2   67.5    67.6  -5.37 0.00130   2.23 0.00374      -2.40
 9  62.2   66.5    66.9  -4.72 0.00218   2.23 0.00487      -2.11
10  62.2   66.5    66.9  -4.72 0.00218   2.23 0.00487      -2.11
# … with 918 more rows
…
